/home/minhnd/Downloads/minhnd.spring.struts/src/main/java/com/mkyong/customer/dao/impl/CustomerDaoImpl.java
/home/minhnd/Downloads/minhnd.spring.struts/src/main/java/com/mkyong/customer/model/Customer.java
/home/minhnd/Downloads/minhnd.spring.struts/src/main/java/com/mkyong/customer/action/AddCustomerAction.java
/home/minhnd/Downloads/minhnd.spring.struts/src/main/java/com/mkyong/customer/bo/impl/CustomerBoImpl.java
/home/minhnd/Downloads/minhnd.spring.struts/src/main/java/com/mkyong/customer/bo/CustomerBo.java
/home/minhnd/Downloads/minhnd.spring.struts/src/main/java/com/mkyong/customer/form/CustomerForm.java
/home/minhnd/Downloads/minhnd.spring.struts/src/main/java/com/mkyong/customer/action/ListCustomerAction.java
/home/minhnd/Downloads/minhnd.spring.struts/src/main/java/com/mkyong/customer/dao/CustomerDao.java
